{"issues":[{"id":"pex-00000","title":"Parallel export issue 00000","description":"Synthetic export workload issue 00000 with repeated payload for JSON serialization and hashing. This line intentionally carries enough text to make per-issue line preparation measurable on many-core hosts.","status":"open","priority":0,"issue_type":"task","assignee":"agent-000","created_at":"2026-05-04T00:00:00Z","created_by":"generator","updated_at":"2026-05-04T00:00:00Z","source_repo":".","compaction_level":0,"original_size":0,"labels":["export","lane-00","swarm"],"dependency_count":0,"dependent_count":0},{"id":"pex-00005","title":"Parallel export issue 00005","description":"Synthetic export workload issue 00005 with repeated payload for JSON serialization and hashing. This line intentionally carries enough text to make per-issue line preparation measurable on many-core hosts.","status":"open","priority":0,"issue_type":"task","assignee":"agent-005","created_at":"2026-05-04T00:00:00Z","created_by":"generator","updated_at":"2026-05-04T00:00:00Z","source_repo":".","compaction_level":0,"original_size":0,"labels":["export","lane-05","swarm"],"dependency_count":0,"dependent_count":0},{"id":"pex-00010","title":"Parallel export issue 00010","description":"Synthetic export workload issue 00010 with repeated payload for JSON serialization and hashing. This line intentionally carries enough text to make per-issue line preparation measurable on many-core hosts.","status":"open","priority":0,"issue_type":"task","assignee":"agent-010","created_at":"2026-05-04T00:00:00Z","created_by":"generator","updated_at":"2026-05-04T00:00:00Z","source_repo":".","compaction_level":0,"original_size":0,"labels":["export","lane-10","swarm"],"dependency_count":0,"dependent_count":0},{"id":"pex-00015","title":"Parallel export issue 00015","description":"Synthetic export workload issue 00015 with repeated payload for JSON serialization and hashing. This line intentionally carries enough text to make per-issue line preparation measurable on many-core hosts.","status":"open","priority":0,"issue_type":"task","assignee":"agent-015","created_at":"2026-05-04T00:00:00Z","created_by":"generator","updated_at":"2026-05-04T00:00:00Z","source_repo":".","compaction_level":0,"original_size":0,"labels":["export","lane-15","swarm"],"dependency_count":0,"dependent_count":0},{"id":"pex-00020","title":"Parallel export issue 00020","description":"Synthetic export workload issue 00020 with repeated payload for JSON serialization and hashing. This line intentionally carries enough text to make per-issue line preparation measurable on many-core hosts.","status":"open","priority":0,"issue_type":"task","assignee":"agent-020","created_at":"2026-05-04T00:00:00Z","created_by":"generator","updated_at":"2026-05-04T00:00:00Z","source_repo":".","compaction_level":0,"original_size":0,"labels":["export","lane-20","swarm"],"dependency_count":0,"dependent_count":0},{"id":"pex-00025","title":"Parallel export issue 00025","description":"Synthetic export workload issue 00025 with repeated payload for JSON serialization and hashing. This line intentionally carries enough text to make per-issue line preparation measurable on many-core hosts.","status":"open","priority":0,"issue_type":"task","assignee":"agent-025","created_at":"2026-05-04T00:00:00Z","created_by":"generator","updated_at":"2026-05-04T00:00:00Z","source_repo":".","compaction_level":0,"original_size":0,"labels":["export","lane-25","swarm"],"dependency_count":0,"dependent_count":0},{"id":"pex-00030","title":"Parallel export issue 00030","description":"Synthetic export workload issue 00030 with repeated payload for JSON serialization and hashing. This line intentionally carries enough text to make per-issue line preparation measurable on many-core hosts.","status":"open","priority":0,"issue_type":"task","assignee":"agent-030","created_at":"2026-05-04T00:00:00Z","created_by":"generator","updated_at":"2026-05-04T00:00:00Z","source_repo":".","compaction_level":0,"original_size":0,"labels":["export","lane-30","swarm"],"dependency_count":0,"dependent_count":0},{"id":"pex-00035","title":"Parallel export issue 00035","description":"Synthetic export workload issue 00035 with repeated payload for JSON serialization and hashing. This line intentionally carries enough text to make per-issue line preparation measurable on many-core hosts.","status":"open","priority":0,"issue_type":"task","assignee":"agent-035","created_at":"2026-05-04T00:00:00Z","created_by":"generator","updated_at":"2026-05-04T00:00:00Z","source_repo":".","compaction_level":0,"original_size":0,"labels":["export","lane-35","swarm"],"dependency_count":0,"dependent_count":0},{"id":"pex-00040","title":"Parallel export issue 00040","description":"Synthetic export workload issue 00040 with repeated payload for JSON serialization and hashing. This line intentionally carries enough text to make per-issue line preparation measurable on many-core hosts.","status":"open","priority":0,"issue_type":"task","assignee":"agent-040","created_at":"2026-05-04T00:00:00Z","created_by":"generator","updated_at":"2026-05-04T00:00:00Z","source_repo":".","compaction_level":0,"original_size":0,"labels":["export","lane-40","swarm"],"dependency_count":0,"dependent_count":0},{"id":"pex-00045","title":"Parallel export issue 00045","description":"Synthetic export workload issue 00045 with repeated payload for JSON serialization and hashing. This line intentionally carries enough text to make per-issue line preparation measurable on many-core hosts.","status":"open","priority":0,"issue_type":"task","assignee":"agent-045","created_at":"2026-05-04T00:00:00Z","created_by":"generator","updated_at":"2026-05-04T00:00:00Z","source_repo":".","compaction_level":0,"original_size":0,"labels":["export","lane-45","swarm"],"dependency_count":0,"dependent_count":0}],"total":12000,"limit":10,"offset":0,"has_more":true}
